# Blender v2.78 (sub 0) OBJ File: ''
# www.blender.org
mtllib ico.mtl
o Icosphere
v 0.000000 -1.000000 0.000000
v 0.723607 -0.447220 0.525725
v -0.276388 -0.447220 0.850649
v -0.894426 -0.447216 0.000000
v -0.276388 -0.447220 -0.850649
v 0.723607 -0.447220 -0.525725
v 0.276388 0.447220 0.850649
v -0.723607 0.447220 0.525725
v -0.723607 0.447220 -0.525725
v 0.276388 0.447220 -0.850649
v 0.894426 0.447216 0.000000
v 0.000000 1.630817 0.000000
v -0.162456 -0.850654 0.499995
v 0.425323 -0.850654 0.309011
v 0.262869 -0.525738 0.809012
v 0.850648 -0.525736 0.000000
v 0.425323 -0.850654 -0.309011
v -0.525730 -0.850652 0.000000
v -0.688189 -0.525736 0.499997
v -0.162456 -0.850654 -0.499995
v -0.688189 -0.525736 -0.499997
v 0.262869 -0.525738 -0.809012
v 0.951058 0.000000 0.309013
v 0.951058 0.000000 -0.309013
v 0.000000 0.000000 2.052221
v 0.881675 0.000000 0.809017
v -0.951058 0.000000 0.309013
v -0.881675 0.000000 0.809017
v -0.587786 0.000000 -0.809017
v -0.951058 0.000000 -0.309013
v 0.587786 0.000000 -0.809017
v 0.000000 0.000000 -1.000000
v 0.688189 0.525736 0.499997
v -0.262869 0.525738 0.809012
v -0.850648 0.525736 0.000000
v -0.262869 0.525738 -0.809012
v 0.688189 0.525736 -0.499997
v 0.162456 0.850654 0.499995
v 0.525730 0.850652 0.000000
v -0.425323 0.850654 0.309011
v -0.425323 0.850654 -0.309011
v 0.162456 0.850654 -0.499995
vt 0.2487 0.8441
vt 0.1939 0.6807
vt 0.3250 0.7138
vt 0.1273 0.5432
vt 0.0477 0.6807
vt 0.3311 0.9111
vt 0.2039 1.0000
vt 0.1191 0.8576
vt 0.0171 0.5369
vt 0.4436 0.4429
vt 0.4045 0.5369
vt 0.3354 0.3710
vt 0.6616 0.2684
vt 0.5590 0.3710
vt 0.5590 0.1659
vt 0.7430 0.6905
vt 0.8728 0.6834
vt 0.7935 0.8565
vt 0.1082 0.4429
vt 0.0000 0.3710
vt 0.0955 0.2684
vt 0.8058 0.4603
vt 0.7227 0.3268
vt 0.8688 0.3196
vt 0.4309 0.2684
vt 0.6708 0.1025
vt 0.6634 0.8169
vt 0.2236 0.3710
vt 0.9193 0.1536
vt 0.7895 0.1465
vt 0.8705 0.0000
vt 0.6623 0.8441
vt 0.6046 1.0000
vt 0.5432 0.8576
vt 0.5350 0.5432
vt 0.6145 0.6807
vt 0.4684 0.6807
vt 0.1082 0.0940
vt 0.0691 0.0000
vt 0.2073 0.0000
vt 0.3262 0.2684
vt 0.2236 0.1659
vt 0.3354 0.1025
vt 0.3311 0.9111
vt 0.3373 0.7138
vt 0.4136 0.8441
vt 0.4086 0.5369
vt 0.4584 1.0000
vt 1.0000 0.0825
vt 0.7244 0.0072
vt 0.6708 0.1659
vt 0.0000 0.1659
vt 0.7301 0.9972
vt 0.8565 0.9972
vt 0.6452 0.5369
vt 0.5427 0.0000
vt 0.4436 0.0940
vt 0.3354 0.1659
vt 0.9989 0.2800
vt 0.6623 0.6194
vt 0.9396 0.8637
vt 0.9915 0.7028
vt 0.9322 0.4603
vt 0.3354 0.4344
vt 0.2073 0.5369
vt 0.0577 1.0000
vt 0.0000 0.8441
vt 0.7918 0.5369
vt 0.9379 0.5441
vt 0.6708 0.4344
vt 0.5427 0.5369
vt 0.2537 0.5369
vn 0.1024 -0.9435 0.3151
vn 0.7002 -0.6617 0.2680
vn -0.2680 -0.9435 0.1947
vn -0.2680 -0.9435 -0.1947
vn 0.1024 -0.9435 -0.3151
vn 0.9050 -0.3304 0.2680
vn -0.1061 -0.9237 0.3682
vn -0.8897 -0.3304 0.3151
vn -0.5746 -0.3304 -0.7488
vn 0.5346 -0.3304 -0.7779
vn 0.9076 -0.4006 0.1259
vn -0.5625 -0.7242 0.3989
vn -0.9921 -0.1256 0.0000
vn -0.3066 -0.1256 -0.9435
vn 0.8026 -0.1256 -0.5831
vn 0.4089 0.6617 0.6284
vn -0.4713 0.6617 0.5831
vn -0.7002 0.6617 -0.2680
vn 0.0385 0.6617 -0.7488
vn 0.7240 0.6617 -0.1947
vn 0.7103 0.4787 -0.5161
vn 0.4911 0.7947 -0.3568
vn 0.4089 0.6617 -0.6284
vn -0.2713 0.4787 -0.8350
vn -0.1876 0.7947 -0.5773
vn -0.4713 0.6617 -0.5831
vn -0.8780 0.4787 0.0000
vn -0.6071 0.7947 0.0000
vn -0.7002 0.6617 0.2680
vn -0.2713 0.4787 0.8350
vn -0.1876 0.7947 0.5773
vn 0.0385 0.6617 0.7488
vn 0.7103 0.4787 0.5161
vn 0.4911 0.7947 0.3568
vn 0.7240 0.6617 0.1947
vn 0.8897 0.3304 -0.3151
vn 0.7947 0.1876 -0.5773
vn 0.5746 0.3304 -0.7488
vn -0.0247 0.3304 -0.9435
vn -0.3035 0.1876 -0.9342
vn -0.5346 0.3304 -0.7779
vn -0.9050 0.3304 -0.2680
vn -0.9822 0.1876 0.0000
vn -0.9050 0.3304 0.2680
vn -0.4953 0.5830 0.6440
vn -0.5884 0.6926 0.4173
vn 0.1061 0.9237 0.3682
vn 0.4673 0.5695 0.6763
vn 0.9048 0.4068 0.1256
vn 0.8897 0.3304 0.3151
vn 0.3066 0.1256 -0.9435
vn 0.3035 -0.1876 -0.9342
vn 0.0247 -0.3304 -0.9435
vn -0.8026 0.1256 -0.5831
vn -0.7947 -0.1876 -0.5773
vn -0.8897 -0.3304 -0.3151
vn -0.9076 0.4006 0.1259
vn -0.9048 -0.4068 0.1256
vn -0.4673 -0.5695 0.6763
vn 0.5625 0.7242 0.3989
vn 0.5884 -0.6926 0.4173
vn 0.4953 -0.5830 0.6440
vn 0.9921 0.1256 0.0000
vn 0.9822 -0.1876 0.0000
vn 0.9050 -0.3304 -0.2680
vn 0.4713 -0.6617 -0.5831
vn 0.1876 -0.7947 -0.5773
vn -0.0385 -0.6617 -0.7488
vn -0.4089 -0.6617 -0.6284
vn -0.4911 -0.7947 -0.3568
vn -0.7240 -0.6617 -0.1947
vn -0.7240 -0.6617 0.1947
vn -0.4911 -0.7947 0.3568
vn -0.4089 -0.6617 0.6284
vn 0.7002 -0.6617 -0.2680
vn 0.6071 -0.7947 0.0000
vn 0.3313 -0.9435 0.0000
vn -0.0385 -0.6617 0.7488
vn 0.1876 -0.7947 0.5773
vn 0.4713 -0.6617 0.5831
usemtl None
s off
f 1/1/1 14/2/1 13/3/1
f 2/4/2 14/2/2 16/5/2
f 1/1/3 13/3/3 18/6/3
f 1/1/4 18/6/4 20/7/4
f 1/1/5 20/7/5 17/8/5
f 2/4/6 16/5/6 23/9/6
f 3/10/7 15/11/7 25/12/7
f 4/13/8 19/14/8 27/15/8
f 5/16/9 21/17/9 29/18/9
f 6/19/10 22/20/10 31/21/10
f 2/22/11 23/23/11 26/24/11
f 3/10/12 25/12/12 28/25/12
f 4/13/13 27/15/13 30/26/13
f 5/16/14 29/18/14 32/27/14
f 6/19/15 31/21/15 24/28/15
f 7/29/16 33/30/16 38/31/16
f 8/32/17 34/33/17 40/34/17
f 9/35/18 35/36/18 41/37/18
f 10/38/19 36/39/19 42/40/19
f 11/41/20 37/42/20 39/43/20
f 39/44/21 42/45/21 12/46/21
f 39/43/22 37/42/22 42/40/22
f 37/42/23 10/38/23 42/40/23
f 42/45/24 41/37/24 12/46/24
f 42/45/25 36/47/25 41/37/25
f 36/47/26 9/35/26 41/37/26
f 41/37/27 40/34/27 12/46/27
f 41/37/28 35/36/28 40/34/28
f 35/36/29 8/32/29 40/34/29
f 40/34/30 38/48/30 12/46/30
f 40/34/31 34/33/31 38/48/31
f 34/49/32 7/29/32 38/31/32
f 38/48/33 39/44/33 12/46/33
f 38/31/34 33/30/34 39/50/34
f 33/30/35 11/51/35 39/50/35
f 24/28/36 37/42/36 11/41/36
f 24/28/37 31/21/37 37/42/37
f 31/21/38 10/38/38 37/42/38
f 32/52/39 36/39/39 10/38/39
f 32/27/40 29/18/40 36/53/40
f 29/18/41 9/54/41 36/53/41
f 30/55/42 35/36/42 9/35/42
f 30/26/43 27/15/43 35/56/43
f 27/15/44 8/57/44 35/56/44
f 28/25/45 34/58/45 8/57/45
f 28/25/46 25/12/46 34/58/46
f 25/59/47 7/29/47 34/49/47
f 26/24/48 33/30/48 7/29/48
f 26/24/49 23/23/49 33/30/49
f 23/23/50 11/51/50 33/30/50
f 31/21/51 32/52/51 10/38/51
f 31/21/52 22/20/52 32/52/52
f 22/60/53 5/16/53 32/27/53
f 29/18/54 30/61/54 9/54/54
f 29/18/55 21/17/55 30/61/55
f 21/17/56 4/62/56 30/61/56
f 27/15/57 28/25/57 8/57/57
f 27/15/58 19/14/58 28/25/58
f 19/14/59 3/10/59 28/25/59
f 25/59/60 26/24/60 7/29/60
f 25/59/61 15/63/61 26/24/61
f 15/63/62 2/22/62 26/24/62
f 23/64/63 24/28/63 11/41/63
f 23/64/64 16/65/64 24/28/64
f 16/65/65 6/19/65 24/28/65
f 17/8/66 22/66/66 6/67/66
f 17/8/67 20/7/67 22/66/67
f 20/68/68 5/16/68 22/60/68
f 20/68/69 21/17/69 5/16/69
f 20/68/70 18/69/70 21/17/70
f 18/69/71 4/62/71 21/17/71
f 18/70/72 19/14/72 4/13/72
f 18/70/73 13/71/73 19/14/73
f 13/71/74 3/10/74 19/14/74
f 16/5/75 17/8/75 6/67/75
f 16/5/76 14/2/76 17/8/76
f 14/2/77 1/1/77 17/8/77
f 13/71/78 15/11/78 3/10/78
f 13/3/79 14/2/79 15/72/79
f 14/2/80 2/4/80 15/72/80
